{
    "retries": 10,
    "schedule_interval": "*/1 * * * *",
    "params": {
        "Category": "TV Shows",
        "RootDir": "/Movies",
        "TempDir": "/Movies/temp"
    },
    "remotes": [
        "KMMDataOne",
        "KMMDataTwo",
        "KMMDataThree",
        "KMMDataFour",
        "KMMDataFive"
    ],
    "divide_count": 4,
    "max_active_runs": 4
}